<svg width="266" height="40" viewBox="0 0 266 40" fill="none" xmlns="http://www.w3.org/2000/svg">
<g clip-path="url(#clip0)">
<path d="M232.12 19.7373L217.336 40H235.497L241.351 32.045L247.28 40H265.666L250.432 19.6623L264.766 0H246.529L241.201 7.3546L235.647 0H217.336L232.12 19.7373Z" fill="#CB0E10"/>
<path d="M23.3396 5.10319V2.10132H0V5.17824H9.90619V27.7674H13.3583V5.10319H23.3396ZM45.6285 27.7674V18.0113C45.6285 16.6604 45.6285 15.3846 45.1032 14.1088C44.2777 11.9325 41.8762 9.38087 36.848 9.38087C32.7205 9.38087 31.2195 10.5066 29.2683 11.8574V2.10132H25.9662V27.7674H29.2683V16.2852C31.2946 12.6829 35.272 12.3827 36.3227 12.3827C38.424 12.3827 41.0507 13.1332 41.9512 15.3846C42.3265 16.4353 42.4015 17.561 42.4015 18.6867V27.7674H45.6285ZM70.5441 19.2871V18.7617C70.5441 15.4597 67.6923 9.38087 60.1126 9.38087C55.8349 9.38087 49.8312 11.7073 49.8312 18.8368C49.8312 24.9906 54.7092 28.2927 60.1126 28.2927C63.4897 28.2927 68.1426 27.167 70.0938 22.5891L66.9418 21.6886C65.8161 24.3152 63.1144 25.516 60.5629 25.516C55.7598 25.516 53.2833 22.2889 53.2083 19.2871H70.5441ZM53.3584 16.6604C54.4841 13.5085 57.2608 11.9325 60.3377 11.9325C64.0901 11.9325 65.9662 14.0338 66.8668 16.6604H53.3584ZM74.8218 9.98124V27.7674H78.1238V17.8612C78.1238 12.9081 82.5516 12.758 83.8274 12.758C85.1032 12.758 85.9287 12.9081 86.5291 13.1332V9.7561C86.0788 9.68106 85.5535 9.45592 84.5779 9.45592C80.3752 9.45592 78.349 11.7073 78.1238 11.9325V9.9062H74.8218V9.98124ZM123.902 27.7674V18.1614C123.902 15.985 123.827 15.1595 123.452 14.1088C122.176 10.7317 118.349 9.53096 115.197 9.53096C110.094 9.53096 107.842 11.9325 107.017 12.833C105.666 10.4315 102.514 9.60601 99.8874 9.60601C96.0601 9.60601 93.5084 11.182 92.4578 12.4578V10.0563H89.1557V27.7674H92.4578V18.7617C92.4578 17.636 92.4578 16.7355 92.9081 15.7599C94.1088 13.5084 97.1858 12.5328 99.2871 12.5328C100.113 12.5328 103.715 12.5328 104.615 16.06C104.841 16.8856 104.841 17.7861 104.841 18.6867V27.7674H108.143V18.5366C108.143 16.9606 108.293 16.2852 108.593 15.6098C109.268 14.334 111.295 12.5328 114.822 12.5328C117.974 12.5328 119.625 14.0338 120.15 15.3096C120.525 16.2852 120.6 17.3358 120.6 18.3115V27.7674H123.902ZM150.244 18.9869C150.244 12.0826 144.54 9.60601 139.212 9.60601C134.709 9.60601 128.255 12.0075 128.255 19.2871C128.255 24.9156 132.908 28.3677 139.287 28.3677C146.341 28.2927 150.244 24.0901 150.244 18.9869ZM147.017 18.9118C147.017 23.6398 142.814 25.4409 139.512 25.4409C134.784 25.4409 131.632 22.7392 131.632 19.0619C131.632 14.7092 135.46 12.4578 139.212 12.4578C142.589 12.3827 147.017 14.0338 147.017 18.9118ZM177.861 7.87993V2.10132H153.996V27.7674H162.702V18.5366H176.585V12.758H162.702V7.87993H177.861ZM188.593 2.10132H180.413V27.7674H188.593V2.10132ZM199.85 15.985C200.75 12.9831 203.677 12.9081 204.503 12.9081C207.58 12.9081 208.705 14.7092 209.156 15.985H199.85ZM245.704 27.7674L236.098 17.7111L245.028 8.48031H235.197L231.295 13.5835L227.467 8.48031H217.561L226.417 17.636L216.66 27.7674H226.567L231.144 21.8387L235.797 27.7674H245.704ZM217.186 22.1388L208.705 21.6886C208.18 22.364 206.604 23.4146 204.578 23.4146C203.527 23.4146 200.15 22.9644 199.475 19.2871H217.636C217.636 15.8349 216.811 13.5835 215.084 11.6323C212.233 8.55535 208.105 7.87993 204.203 7.87993C199.625 7.87993 196.998 8.70545 194.822 10.3565C191.67 12.6829 191.144 16.06 191.144 17.9362C191.144 25.8161 198.199 28.2176 204.278 28.2176C211.332 28.2927 215.535 25.7411 217.186 22.1388Z" fill="white"/>
</g>
<defs>
<clipPath id="clip0">
<rect width="265.666" height="40" fill="white"/>
</clipPath>
</defs>
</svg>
